%YAML 1.1
%TAG !u! tag:unity3d.com,2011:
--- !u!1045 &1
EditorBuildSettings:
  m_ObjectHideFlags: 0
  serializedVersion: 2
  m_Scenes:
  - enabled: 1
    path: Assets/_Scenes/Game.unity
    guid: 20049867e9d466644a1e07999d7181ac
  - enabled: 1
    path: Assets/_Scenes/Main_menu.unity
    guid: 6aa2f4fd7d8d37646bf784f00e8a5277
  - enabled: 1
    path: Assets/_Scenes/Options.unity
    guid: 188cdc15f050a1c448906e10c3e05dbd
